{
  "src_folders" : ["./tests/"],
  "output_folder" : "reports",
  "custom_commands_path" : "",
  "custom_assertions_path" : "",
  "page_objects_path" : "",
  "globals_path" : "",

  "selenium" : {
    "start_process" : false
  },

  "test_settings" : {
    "default" : {
      "selenium_port"  : 4444,
      "selenium_host"  : "172.17.0.1",
      "desiredCapabilities": {
        "browserName": "chrome",
        "chromeOptions" : {
          "args" : ["--no-sandbox"]
        },
        "acceptSslCerts": true
      }
    }
  }
}
